20180829_hFis1_deltadelta.R
…
# Print plots prior to saving; verify above code functions properly
walk(plots2, print)

## [1] "MB1241" "MB1245" "MB1247" "ZT0164" "ZT1679" "ZT2012"
## [[1]]
## # A tibble: 119 x 12
##    residue label apo_H apo_N end_H end_N   CSP  mean    sd twoSD sigma
##      <dbl> <chr> <dbl> <dbl> <dbl> <dbl> <dbl> <dbl> <dbl> <dbl> <dbl>
##  1       3 A3     8.59  124.  8.55  124. 0.537 0.196 0.320 0.641 0.517
##  2       4 V4     7.99  118.  8.17  120. 1.66  0.196 0.320 0.641 0.517
##  3       5 L5     8.14  121.  8.26  123. 2.24  0.196 0.320 0.641 0.517
##  4       6 N6     8.12  116.  7.93  116. 0.950 0.196 0.320 0.641 0.517
##  5       7 E7     7.78  120.  7.46  120. 1.67  0.196 0.320 0.641 0.517
##  6       8 L8     8.34  125.  8.38  125. 0.740 0.196 0.320 0.641 0.517
##  7       9 V9     7.90  122.  7.96  122. 0.303 0.196 0.320 0.641 0.517
##  8      10 S10    8.89  123.  8.90  123. 0.174 0.196 0.320 0.641 0.517
##  9      11 V11    8.77  124.  8.78  124. 0.205 0.196 0.320 0.641 0.517
## 10      12 E12    8.63  118.  8.64  118. 0.124 0.196 0.320 0.641 0.517
## # ... with 109 more rows, and 1 more variable: twosigma <dbl>
## 
## [[2]]
## # A tibble: 119 x 12
##    residue label apo_H apo_N end_H end_N    CSP  mean    sd twoSD sigma
##      <dbl> <chr> <dbl> <dbl> <dbl> <dbl>  <dbl> <dbl> <dbl> <dbl> <dbl>
##  1       3 A3     8.59  124.  8.59  124. 0      0.102 0.144 0.287 0.246
##  2       4 V4     7.99  118.  7.99  118. 0      0.102 0.144 0.287 0.246
##  3       5 L5     8.14  121.  8.14  121. 0      0.102 0.144 0.287 0.246
##  4       6 N6     8.12  116.  8.12  116. 0      0.102 0.144 0.287 0.246
##  5       7 E7     7.78  120.  7.56  121. 1.26   0.102 0.144 0.287 0.246
##  6       8 L8     8.34  125.  8.34  125. 0.433  0.102 0.144 0.287 0.246
##  7       9 V9     7.90  122.  7.90  123. 0.243  0.102 0.144 0.287 0.246
##  8      10 S10    8.89  123.  8.9   123. 0.0738 0.102 0.144 0.287 0.246
##  9      11 V11    8.77  124.  8.77  124. 0.277  0.102 0.144 0.287 0.246
## 10      12 E12    8.63  118.  8.62  118. 0.0633 0.102 0.144 0.287 0.246
## # ... with 109 more rows, and 1 more variable: twosigma <dbl>
## 
## [[3]]
## # A tibble: 119 x 12
##    residue label apo_H apo_N end_H end_N    CSP  mean    sd twoSD sigma
##      <dbl> <chr> <dbl> <dbl> <dbl> <dbl>  <dbl> <dbl> <dbl> <dbl> <dbl>
##  1       3 A3     8.59  124.  8.54  125. 1.72   0.294 0.485 0.969 0.779
##  2       4 V4     7.99  118.  8.12  120. 1.97   0.294 0.485 0.969 0.779
##  3       5 L5     8.14  121.  8.29  124. 2.84   0.294 0.485 0.969 0.779
##  4       6 N6     8.12  116.  7.90  116. 1.10   0.294 0.485 0.969 0.779
##  5       7 E7     7.78  120.  7.15  119. 3.31   0.294 0.485 0.969 0.779
##  6       8 L8     8.34  125.  8.40  126. 1.61   0.294 0.485 0.969 0.779
##  7       9 V9     7.90  122.  7.95  122. 0.250  0.294 0.485 0.969 0.779
##  8      10 S10    8.89  123.  8.89  123. 0.0104 0.294 0.485 0.969 0.779
##  9      11 V11    8.77  124.  8.80  124. 0.152  0.294 0.485 0.969 0.779
## 10      12 E12    8.63  118.  8.67  118. 0.296  0.294 0.485 0.969 0.779
## # ... with 109 more rows, and 1 more variable: twosigma <dbl>
## 
## [[4]]
## # A tibble: 119 x 12
##    residue label apo_H apo_N end_H end_N    CSP  mean    sd twoSD sigma
##      <dbl> <chr> <dbl> <dbl> <dbl> <dbl>  <dbl> <dbl> <dbl> <dbl> <dbl>
##  1       3 A3     8.59  124.  8.54  124. 0.634  0.212 0.247 0.493 0.459
##  2       4 V4     7.99  118.  8.07  119. 1.09   0.212 0.247 0.493 0.459
##  3       5 L5     8.14  121.  8.17  123. 1.98   0.212 0.247 0.493 0.459
##  4       6 N6     8.12  116.  8.12  116. 0      0.212 0.247 0.493 0.459
##  5       7 E7     7.78  120.  7.53  120. 1.31   0.212 0.247 0.493 0.459
##  6       8 L8     8.34  125.  8.35  125. 0.232  0.212 0.247 0.493 0.459
##  7       9 V9     7.90  122.  7.91  122. 0.263  0.212 0.247 0.493 0.459
##  8      10 S10    8.89  123.  8.89  123. 0.0326 0.212 0.247 0.493 0.459
##  9      11 V11    8.77  124.  8.77  124. 0.0121 0.212 0.247 0.493 0.459
## 10      12 E12    8.63  118.  8.63  118. 0.183  0.212 0.247 0.493 0.459
## # ... with 109 more rows, and 1 more variable: twosigma <dbl>
## 
## [[5]]
## # A tibble: 119 x 12
##    residue label apo_H apo_N end_H end_N    CSP  mean    sd twoSD sigma
##      <dbl> <chr> <dbl> <dbl> <dbl> <dbl>  <dbl> <dbl> <dbl> <dbl> <dbl>
##  1       3 A3     8.59  124.  8.51  124. 0.793  0.205 0.213 0.426 0.418
##  2       4 V4     7.99  118.  8.04  119. 0.559  0.205 0.213 0.426 0.418
##  3       5 L5     8.14  121.  8.16  123. 1.70   0.205 0.213 0.426 0.418
##  4       6 N6     8.12  116.  8.05  117. 0.986  0.205 0.213 0.426 0.418
##  5       7 E7     7.78  120.  7.80  120. 0.271  0.205 0.213 0.426 0.418
##  6       8 L8     8.34  125.  8.24  124. 0.970  0.205 0.213 0.426 0.418
##  7       9 V9     7.90  122.  7.88  122. 0.188  0.205 0.213 0.426 0.418
##  8      10 S10    8.89  123.  8.89  123. 0.0364 0.205 0.213 0.426 0.418
##  9      11 V11    8.77  124.  8.75  123. 0.237  0.205 0.213 0.426 0.418
## 10      12 E12    8.63  118.  8.62  118. 0.112  0.205 0.213 0.426 0.418
## # ... with 109 more rows, and 1 more variable: twosigma <dbl>
## 
## [[6]]
## # A tibble: 119 x 12
##    residue label apo_H apo_N end_H end_N    CSP  mean    sd twoSD sigma
##      <dbl> <chr> <dbl> <dbl> <dbl> <dbl>  <dbl> <dbl> <dbl> <dbl> <dbl>
##  1       3 A3     8.59  124.  8.49  125. 1.08   0.277 0.377 0.754 0.654
##  2       4 V4     7.99  118.  8.03  119. 0.727  0.277 0.377 0.754 0.654
##  3       5 L5     8.14  121.  8.10  124. 2.59   0.277 0.377 0.754 0.654
##  4       6 N6     8.12  116.  7.59  117. 2.75   0.277 0.377 0.754 0.654
##  5       7 E7     7.78  120.  7.74  120. 0.199  0.277 0.377 0.754 0.654
##  6       8 L8     8.34  125.  8.22  124. 1.12   0.277 0.377 0.754 0.654
##  7       9 V9     7.90  122.  7.86  122. 0.585  0.277 0.377 0.754 0.654
##  8      10 S10    8.89  123.  8.90  123. 0.0372 0.277 0.377 0.754 0.654
##  9      11 V11    8.77  124.  8.77  123. 0.167  0.277 0.377 0.754 0.654
## 10      12 E12    8.63  118.  8.63  118. 0.204  0.277 0.377 0.754 0.654
## # ... with 109 more rows, and 1 more variable: twosigma <dbl>
## 
## [[1]]
…
