20190313_hetNOE_hFis1_1iyg_condition.R
…
## Parsed with column specification:
## cols(
##   .default = col_double(),
##   X1 = col_character(),
##   X120 = col_logical()
## )

## See spec(...) for full column specifications.

## Warning: `as_tibble.matrix()` requires a matrix with column names or a `.name_repair` argument. Using compatibility `.name_repair`.
## This warning is displayed once per session.

hetNOE

## # A tibble: 118 x 4
##    residue   noe reference   het
##      <dbl> <dbl>     <dbl> <dbl>
##  1       3  584.      749. 0.779
##  2       4  871.      942. 0.924
##  3       5  914.     1221. 0.749
##  4       6 2432.     2527. 0.962
##  5       7  889.     1199. 0.741
##  6       8 2000.     2664. 0.751
##  7       9 1666.     2321. 0.718
##  8      10 2708.     3648. 0.742
##  9      11 2188.     3009. 0.727
## 10      12 2995.     3826. 0.783
## #  with 108 more rows

apo_hepes <- read_excel("apo_hFis1_aa1-125_chemical_shifts.xlsx") %>%
  mutate(residue = parse_number(label)) %>%
  select(-label, -H_ppm, -N_ppm)

apo_hepes

## # A tibble: 118 x 2
##    secondary residue
##    <chr>       <dbl>
##  1 arm             3
##  2 arm             4
##  3 arm             5
##  4 arm             6
##  5 arm             7
##  6 arm             8
##  7 arm             9
##  8 arm            10
##  9 helix          11
## 10 helix          12
## #  with 108 more rows

hetNOE <- hetNOE %>%
  left_join(apo_hepes, by = "residue")
hetNOE

## # A tibble: 118 x 5
##    residue   noe reference   het secondary
##      <dbl> <dbl>     <dbl> <dbl> <chr>    
##  1       3  584.      749. 0.779 arm      
##  2       4  871.      942. 0.924 arm      
##  3       5  914.     1221. 0.749 arm      
##  4       6 2432.     2527. 0.962 arm      
##  5       7  889.     1199. 0.741 arm      
##  6       8 2000.     2664. 0.751 arm      
##  7       9 1666.     2321. 0.718 arm      
##  8      10 2708.     3648. 0.742 arm      
##  9      11 2188.     3009. 0.727 helix    
## 10      12 2995.     3826. 0.783 helix    
## #  with 108 more rows
…
ggsave("hetNOE_hFis1_1iyg_condition.pdf",
       width = 12, height = 8, units = "cm", dpi = 300)

# Data transformations to set-up for chemcial shift  plot -------------------

# import chemical shifts from HEPES and 1PC2 conditions
shifts_hepes <- read_excel("apo_hFis1_aa1-125_chemical_shifts.xlsx") %>%
  mutate(residue = parse_number(label)) %>%
  rename(H_hepes = H_ppm,
         N_hepes = N_ppm)
shifts_hepes

## # A tibble: 118 x 5
##    label H_hepes N_hepes secondary residue
##    <chr>   <dbl>   <dbl> <chr>       <dbl>
##  1 A3       8.58    124. arm             3
##  2 V4       7.98    118. arm             4
##  3 L5       8.14    121. arm             5
##  4 N6       8.12    116. arm             6
##  5 E7       7.76    120. arm             7
##  6 L8       8.33    125. arm             8
##  7 V9       7.90    122. arm             9
##  8 S10      8.88    123. arm            10
##  9 V11      8.75    124. helix          11
## 10 E12      8.61    118. helix          12
## #  with 108 more rows
shifts_1pc2 <- read_csv("hFis1_1pc2_condition_chemical_shifts.csv") %>%
  rename(H_1pc2 = H,
         N_1pc2 = N)

## Parsed with column specification:
## cols(
##   residue = col_double(),
##   label = col_character(),
##   H = col_double(),
##   N = col_double()
## )

shifts_1pc2

## # A tibble: 118 x 4
##    residue label H_1pc2 N_1pc2
##      <dbl> <chr>  <dbl>  <dbl>
##  1       3 A3      8.80   125.
##  2       4 V4      7.96   118.
##  3       5 L5      8.21   121.
##  4       6 N6      8.05   116.
##  5       7 E7      7.79   120.
##  6       8 L8      8.37   124.
##  7       9 V9      7.94   122.
##  8      10 S10     8.86   123.
##  9      11 V11     8.78   124.
## 10      12 E12     8.64   119.
## #  with 108 more rows
…
## Parsed with column specification:
## cols(
##   `Spin label` = col_character(),
##   hetnoe_noe.3D = col_character(),
##   hetnoe_ref.3D = col_character()
## )

H_shift

## # A tibble: 354 x 4
##    residue secondary type  H_shift
##      <dbl> <chr>     <chr>   <dbl>
##  1       3 arm       hepes    8.58
##  2       4 arm       hepes    7.98
##  3       5 arm       hepes    8.14
##  4       6 arm       hepes    8.12
##  5       7 arm       hepes    7.76
##  6       8 arm       hepes    8.33
##  7       9 arm       hepes    7.90
##  8      10 arm       hepes    8.88
##  9      11 helix     hepes    8.75
## 10      12 helix     hepes    8.61
## #  with 344 more rows
…
## Parsed with column specification:
## cols(
##   `Spin label` = col_character(),
##   hetnoe_noe.3D = col_double(),
##   hetnoe_ref.3D = col_double()
## )

shifts

## # A tibble: 354 x 5
##    residue secondary H_shift N_shift type 
##      <dbl> <chr>       <dbl>   <dbl> <chr>
##  1       3 arm          8.58    124. hepes
##  2       4 arm          7.98    118. hepes
##  3       5 arm          8.14    121. hepes
##  4       6 arm          8.12    116. hepes
##  5       7 arm          7.76    120. hepes
##  6       8 arm          8.33    125. hepes
##  7       9 arm          7.90    122. hepes
##  8      10 arm          8.88    123. hepes
##  9      11 helix        8.75    124. hepes
## 10      12 helix        8.61    118. hepes
## #  with 344 more rows
write_csv(shifts, "hFis1_all_3_conditions_chemical_shifts.csv")

# Calculate and plot chemical shift  ----------------------------------------

delta3 <- shifts %>%
  group_by(residue) %>%
  mutate(human_delta = sqrt(((5*(H_shift[type == "1pc2"] - H_shift[type == "hepes"]))^2) + 
                              (N_shift[type == "1pc2"] - N_shift[type == "hepes"])^2),
         mouse_delta = sqrt(((5*(H_shift[type == "1iyg"] - H_shift[type == "hepes"]))^2) + 
                              (N_shift[type == "1iyg"] - N_shift[type == "hepes"])^2),
         delta_delta = human_delta - mouse_delta) 

delta3

## # A tibble: 354 x 8
## # Groups:   residue [118]
##    residue secondary H_shift N_shift type  human_delta mouse_delta
##      <dbl> <chr>       <dbl>   <dbl> <chr>       <dbl>       <dbl>
##  1       3 arm          8.58    124. hepes      1.66         1.54 
##  2       4 arm          7.98    118. hepes      0.0924       0.404
##  3       5 arm          8.14    121. hepes      0.436        0.239
##  4       6 arm          8.12    116. hepes      0.408        1.04 
##  5       7 arm          7.76    120. hepes      0.204        0.176
##  6       8 arm          8.33    125. hepes      0.294        0.206
##  7       9 arm          7.90    122. hepes      0.213        0.199
##  8      10 arm          8.88    123. hepes      0.167        0.226
##  9      11 helix        8.75    124. hepes      0.206        0.019
## 10      12 helix        8.61    118. hepes      0.291        0.166
## #  with 344 more rows, and 1 more variable: delta_delta <dbl>
…
## Parsed with column specification:
## cols(
##   .default = col_double(),
##   X1 = col_character()
## )
## See spec(...) for full column specifications.

hetNOE_hepes

## # A tibble: 117 x 5
##    residue reference   noe het_hepes secondary
##      <dbl>     <dbl> <dbl>     <dbl> <chr>    
##  1       3     3033. 1087.     0.358 arm      
##  2       4    13530. 7249.     0.536 arm      
##  3       5    10204. 6018.     0.590 arm      
##  4       6     2909. 2190.     0.753 arm      
##  5       7    14349. 8387.     0.585 arm      
##  6       8    13080. 8124.     0.621 arm      
##  7       9    10718  6814.     0.636 arm      
##  8      10    11843. 8977.     0.758 arm      
##  9      11     7988. 6299.     0.789 helix    
## 10      12    11770  8846.     0.752 helix    
## #  with 107 more rows
…
## Parsed with column specification:
## cols(
##   .default = col_double(),
##   X1 = col_character(),
##   X120 = col_logical()
## )
## See spec(...) for full column specifications.

hetNOE_1pc2

## # A tibble: 117 x 2
##    residue het_1pc2
##      <dbl>    <dbl>
##  1       3    0.839
##  2       4    0.739
##  3       5    0.931
##  4       6    0.789
##  5       7    0.756
##  6       8    0.670
##  7       9    0.665
##  8      10    0.766
##  9      11    0.810
## 10      12    0.745
## #  with 107 more rows
…
hetNOE_delta <- hetNOE_hepes %>%
  select(residue, secondary, het_hepes) %>%
  left_join(hetNOE, by = c("residue", "secondary")) %>%
  select(-noe, -reference) %>%
  rename(het_1iyg = het) %>%
  left_join(hetNOE_1pc2, by = "residue") %>%
  mutate(human_het_delta = abs(het_1pc2 - het_hepes),
         mouse_het_delta = abs(het_1iyg - het_hepes),
         het_delta = human_het_delta - mouse_het_delta)

hetNOE_delta

## # A tibble: 117 x 8
##    residue secondary het_hepes het_1iyg het_1pc2 human_het_delta
##      <dbl> <chr>         <dbl>    <dbl>    <dbl>           <dbl>
##  1       3 arm           0.358    0.779    0.839         0.481  
##  2       4 arm           0.536    0.924    0.739         0.203  
##  3       5 arm           0.590    0.749    0.931         0.342  
##  4       6 arm           0.753    0.962    0.789         0.0355 
##  5       7 arm           0.585    0.741    0.756         0.171  
##  6       8 arm           0.621    0.751    0.670         0.0487 
##  7       9 arm           0.636    0.718    0.665         0.0288 
##  8      10 arm           0.758    0.742    0.766         0.00835
##  9      11 helix         0.789    0.727    0.810         0.0217 
## 10      12 helix         0.752    0.783    0.745         0.00693
## #  with 107 more rows, and 2 more variables: mouse_het_delta <dbl>,
## #   het_delta <dbl>
…
## # A tibble: 4 x 6
##   term                   df   sumsq meansq statistic   p.value
##   <chr>               <dbl>   <dbl>  <dbl>     <dbl>     <dbl>
## 1 condition               2  0.0333 0.0166     0.358  6.99e- 1
## 2 secondary               2  5.63   2.82      60.7    2.90e-23
## 3 condition:secondary     4  0.169  0.0423     0.911  4.58e- 1
## 4 Residuals             341 15.8    0.0464    NA     NA

tukey_hetNOE <- hetNOE_delta %>%
  gather(het_hepes, het_1iyg, het_1pc2, key = "condition", value = "hetNOE") %>%
  do(tidy(TukeyHSD(aov(hetNOE ~ condition*secondary, data = .))))

tukey_hetNOE  

## # A tibble: 42 x 6
##    term          comparison         estimate conf.low conf.high adj.p.value
##    <chr>         <chr>                 <dbl>    <dbl>     <dbl>       <dbl>
##  1 condition     het_1pc2-het_1iyg  -0.00388  -0.0703    0.0626  0.990     
##  2 condition     het_hepes-het_1iyg -0.0223   -0.0886    0.0440  0.708     
##  3 condition     het_hepes-het_1pc2 -0.0184   -0.0849    0.0480  0.791     
##  4 secondary     helix-arm           0.0651   -0.0431    0.173   0.333     
##  5 secondary     loop-arm           -0.264    -0.385    -0.143   0.00000148
##  6 secondary     loop-helix         -0.329    -0.399    -0.259   0         
##  7 condition:se het_1pc2:arm-het_ -0.0266   -0.363     0.310   1.000     
##  8 condition:se het_hepes:arm-het -0.191    -0.528     0.145   0.698     
##  9 condition:se het_1iyg:helix-he  0.00183  -0.247     0.250   1         
## 10 condition:se het_1pc2:helix-he -0.00617  -0.255     0.242   1.000     
## #  with 32 more rows
…
