20190226_hFis1_HEPES_talos_comparison.R
…
## Warning: 1 parsing failure.
## row   col expected        actual                   file
## 121 CLASS          embedded null 'hFis1_HEPES_rama.txt'

hepes_rama

## # A tibble: 121 x 5
##    residue aa        phi      psi type 
##      <dbl> <chr>   <dbl>    <dbl> <chr>
##  1       1 M      9999    9999    hepes
##  2       2 E       -62     -25    hepes
##  3       3 A       -67.8   -26.3  hepes
##  4       4 V       -68.7   -37.8  hepes
##  5       5 L       -69.4   -27.5  hepes
##  6       6 N       -91.3    -8.10 hepes
##  7       7 E      -102.    140.   hepes
##  8       8 L      -106.    132.   hepes
##  9       9 V      -105.    125.   hepes
## 10      10 S       -81.0   145.   hepes
## #  with 111 more rows

mouse_ref_tmp <- torsion.pdb(read.pdb("1IYG_121SKY.pdb"))
mouse_ref <- as_tibble(mouse_ref_tmp$tbl) %>%
  mutate(residue = 1:121,
         type = "mouse",
         aa = hepes_rama$aa)
mouse_ref

## # A tibble: 121 x 10
##       phi    psi   chi1   chi2   chi3  chi4  chi5 residue type  aa   
##     <dbl>  <dbl>  <dbl>  <dbl>  <dbl> <dbl> <dbl>   <int> <chr> <chr>
##  1   NA    -46.4  171.   116.  -116.     NA    NA       1 mouse M    
##  2  -58.3  -15.8 -132.  -180.    59.3    NA    NA       2 mouse E    
##  3  -95.1  -37.9   NA     NA     NA      NA    NA       3 mouse A    
##  4  -62.1  -45.7  153.    NA     NA      NA    NA       4 mouse V    
##  5  -70.2  -43.0  -94.1 -173.    NA      NA    NA       5 mouse L    
##  6  -56.2  -63.6 -108.  -101.    NA      NA    NA       6 mouse N    
##  7  -60.1  136.  -125.  -148.   -45.6    NA    NA       7 mouse E    
##  8 -122.   168.    47.7   88.9   NA      NA    NA       8 mouse L    
##  9  -65.6  164.   112.    NA     NA      NA    NA       9 mouse V    
## 10 -124.   135.   -41.3   NA     NA      NA    NA      10 mouse S    
## #  with 111 more rows

human_ref_tmp <- torsion.pdb(read.pdb("1PC2_121SKY.pdb"))
human_ref <- as_tibble(human_ref_tmp$tbl) %>%
  mutate(residue = 1:121,
         type = "human",
         aa = hepes_rama$aa)
human_ref

## # A tibble: 121 x 10
##       phi      psi   chi1  chi2   chi3  chi4  chi5 residue type  aa   
##     <dbl>    <dbl>  <dbl> <dbl>  <dbl> <dbl> <dbl>   <int> <chr> <chr>
##  1   NA      0.136   53.9 -178. -164.     NA    NA       1 human M    
##  2  -69.7   75.9    -58.4  178.   73.5    NA    NA       2 human E    
##  3  -70.7  121.      NA     NA    NA      NA    NA       3 human A    
##  4  -75.0  112.    -174.    NA    NA      NA    NA       4 human V    
##  5  -74.5  161.     -43.1 -176.   NA      NA    NA       5 human L    
##  6  -79.7   67.7     45.6 -115.   NA      NA    NA       6 human N    
##  7 -161.   143.     176.   167.  -68.4    NA    NA       7 human E    
##  8  -65.2  -87.9    -55.3  178.   NA      NA    NA       8 human L    
##  9 -148.   119.    -173.    NA    NA      NA    NA       9 human V    
## 10  -63.1  138.      63.2   NA    NA      NA    NA      10 human S    
## #  with 111 more rows
…
## Warning: 119 parsing failures.
## row col   expected     actual             file
##   1  -- 12 columns 11 columns 'youle_pred.tab'
##   2  -- 12 columns 11 columns 'youle_pred.tab'
##   3  -- 12 columns 11 columns 'youle_pred.tab'
##   4  -- 12 columns 11 columns 'youle_pred.tab'
##   5  -- 12 columns 11 columns 'youle_pred.tab'
## ... ... .......... .......... ................
## See problems(...) for more details.

human_exp

## # A tibble: 119 x 5
##    residue aa        phi     psi type     
##      <dbl> <chr>   <dbl>   <dbl> <chr>    
##  1       3 A      9999    9999   human_exp
##  2       4 V      -105.    130.  human_exp
##  3       5 L       -88.6   147.  human_exp
##  4       6 N       -94.0   -15.4 human_exp
##  5       7 E      -110.    143.  human_exp
##  6       8 L       -97.9   136.  human_exp
##  7       9 V      -123.    132.  human_exp
##  8      10 S       -87.2   151.  human_exp
##  9      11 V       -55.2   -43.7 human_exp
## 10      12 E       -63.4   -38.9 human_exp
## #  with 109 more rows

reference <- mouse_ref %>%
  union(human_ref) %>%
  select(residue, aa, phi, psi, type) %>%
  union(hepes_rama) %>%
  union(human_exp) %>%
  filter(psi != 9999 & phi != 9999)
reference

## # A tibble: 474 x 5
##    residue aa      phi   psi type     
##      <dbl> <chr> <dbl> <dbl> <chr>    
##  1     120 K     -64.4 -35.6 human_exp
##  2     119 K     -67.2 -39.3 human_exp
##  3     118 M     -65.5 -35.2 human_exp
##  4     117 A     -67.9 -40.7 human_exp
##  5     116 K     -61.1 -41.7 human_exp
##  6     115 D     -59.6 -40.7 human_exp
##  7     114 I     -60.9 -42.6 human_exp
##  8     111 E     -61.9 -43.9 human_exp
##  9     108 K     -65.6 -38.7 human_exp
## 10     107 A     -61.0 -41.9 human_exp
## #  with 464 more rows
…
ggsave("all_rama_comparison_facet_by_residue.pdf",
       width = 30, height = 30, units = "cm", dpi = 300)

# PHI/PSI difference plot between EXP and reference structures ------------
apo <- read_excel("apo_hFis1_aa1-125_chemical_shifts.xlsx", sheet = 1) %>%
  mutate(residue = parse_number(label))
apo

## # A tibble: 118 x 5
##    label H_ppm N_ppm secondary residue
##    <chr> <dbl> <dbl> <chr>       <dbl>
##  1 A3     8.58  124. arm             3
##  2 V4     7.98  118. arm             4
##  3 L5     8.14  121. arm             5
##  4 N6     8.12  116. arm             6
##  5 E7     7.76  120. arm             7
##  6 L8     8.33  125. arm             8
##  7 V9     7.90  122. arm             9
##  8 S10    8.88  123. arm            10
##  9 V11    8.75  124. helix          11
## 10 E12    8.61  118. helix          12
## #  with 108 more rows

phi_psi <- reference %>%
  group_by(residue) %>%
  filter(type != "human_exp") %>%
  mutate(human_delta = sqrt(((phi[type == "human"] - phi[type == "hepes"])^2) + 
                              (psi[type == "human"] - psi[type == "hepes"])^2),
         mouse_delta = sqrt(((phi[type == "mouse"] - phi[type == "hepes"])^2) + 
                              (psi[type == "mouse"] - psi[type == "hepes"])^2),
         delta_delta = human_delta - mouse_delta) %>%
  left_join(apo, by = "residue") %>%
  select(-H_ppm, -N_ppm, -label)
phi_psi

## # A tibble: 357 x 9
## # Groups:   residue [119]
##    residue aa      phi   psi type  human_delta mouse_delta delta_delta
##      <dbl> <chr> <dbl> <dbl> <chr>       <dbl>       <dbl>       <dbl>
##  1     120 K     -66.9 -61.2 human       27.1        30.0        -2.96
##  2     118 M     -51.2 -40.8 human       15.8        28.7       -13.0 
##  3     116 K     -68.8 -39.8 human        3.30        6.09       -2.80
##  4     115 D     -70.5 -37.5 human        8.51       10.0        -1.50
##  5     113 L     -58.0 -51.7 human       14.9        27.8       -12.9 
##  6     108 K     -74.9 -50.3 human       16.4        28.2       -11.9 
##  7     112 R     -63.2 -49.2 human        6.73        8.66       -1.93
##  8     111 E     -58.0 -34.5 human       11.5        24.3       -12.8 
##  9     110 L     -62.7 -40.8 human        8.76       38.6       -29.9 
## 10      55 I     -73.1 -42.0 human       10.0        12.7        -2.73
## #  with 347 more rows, and 1 more variable: secondary <chr>
…
# PHI/PSI difference plot between EXP & 1PC2 chemical shift derived angles -----
phi_psi_youle <- reference %>%
  group_by(residue) %>%
  filter(type != "mouse" & residue > 3) %>%
  mutate(human_delta = sqrt(((phi[type == "human"] - phi[type == "hepes"])^2) + 
                              (psi[type == "human"] - psi[type == "hepes"])^2),
         human_exp_delta = sqrt(((phi[type == "human_exp"] - phi[type == "hepes"])^2) + 
                              (psi[type == "human_exp"] - psi[type == "hepes"])^2),
         delta_delta = human_delta - human_exp_delta) %>%
  left_join(apo, by = "residue") %>%
  select(-H_ppm, -N_ppm, -label)
phi_psi_youle

## # A tibble: 351 x 9
## # Groups:   residue [117]
##    residue aa      phi   psi type  human_delta human_exp_delta delta_delta
##      <dbl> <chr> <dbl> <dbl> <chr>       <dbl>           <dbl>       <dbl>
##  1     120 K     -64.4 -35.6 huma       27.1             4.82       22.3 
##  2     119 K     -67.2 -39.3 huma       10.3             4.23        6.08
##  3     118 M     -65.5 -35.2 huma       15.8             3.55       12.2 
##  4     117 A     -67.9 -40.7 huma       13.9             3.27       10.6 
##  5     116 K     -61.1 -41.7 huma        3.30            7.77       -4.47
##  6     115 D     -59.6 -40.7 huma        8.51            3.07        5.44
##  7     114 I     -60.9 -42.6 huma       14.3             4.71        9.58
##  8     111 E     -61.9 -43.9 huma       11.5             1.39       10.1 
##  9     108 K     -65.6 -38.7 huma       16.4             3.31       13.0 
## 10     107 A     -61.0 -41.9 huma       20.2             6.59       13.6 
## #  with 341 more rows, and 1 more variable: secondary <chr>
…
